127.0.0.1 - - [16/Sep/2017:11:05:15 +0530] "GET / HTTP/1.1" 404 951
127.0.0.1 - - [16/Sep/2017:11:05:51 +0530] "GET / HTTP/1.1" 404 951
127.0.0.1 - - [16/Sep/2017:11:05:52 +0530] "GET /spring3/ HTTP/1.1" 200 1632
127.0.0.1 - - [16/Sep/2017:11:05:52 +0530] "GET /spring3/resources/core/css/hello.js;jsessionid=08F8B4C42AE73E2F0E625E89BE722F3D HTTP/1.1" 404 949
127.0.0.1 - - [16/Sep/2017:11:05:52 +0530] "GET /spring3/resources/core/css/hello.css;jsessionid=08F8B4C42AE73E2F0E625E89BE722F3D HTTP/1.1" 200 -
127.0.0.1 - - [16/Sep/2017:11:05:52 +0530] "GET /spring3/resources/core/css/bootstrap.min.js;jsessionid=08F8B4C42AE73E2F0E625E89BE722F3D HTTP/1.1" 404 949
127.0.0.1 - - [16/Sep/2017:11:05:52 +0530] "GET /spring3/resources/core/css/bootstrap.min.css;jsessionid=08F8B4C42AE73E2F0E625E89BE722F3D HTTP/1.1" 200 117305
127.0.0.1 - - [16/Sep/2017:11:05:52 +0530] "GET /spring3/resources/core/css/bootstrap.min.js;jsessionid=08F8B4C42AE73E2F0E625E89BE722F3D HTTP/1.1" 404 949
127.0.0.1 - - [16/Sep/2017:11:07:19 +0530] "GET /spring3/ HTTP/1.1" 200 1632
127.0.0.1 - - [16/Sep/2017:11:07:19 +0530] "GET /spring3/resources/core/css/bootstrap.min.css;jsessionid=8EF55394468C674E591F4C566C885EE7 HTTP/1.1" 200 117305
127.0.0.1 - - [16/Sep/2017:11:07:19 +0530] "GET /spring3/resources/core/css/bootstrap.min.js;jsessionid=8EF55394468C674E591F4C566C885EE7 HTTP/1.1" 404 949
127.0.0.1 - - [16/Sep/2017:11:07:19 +0530] "GET /spring3/resources/core/css/hello.css;jsessionid=8EF55394468C674E591F4C566C885EE7 HTTP/1.1" 200 -
127.0.0.1 - - [16/Sep/2017:11:07:19 +0530] "GET /spring3/resources/core/css/hello.js;jsessionid=8EF55394468C674E591F4C566C885EE7 HTTP/1.1" 404 949
127.0.0.1 - - [16/Sep/2017:11:07:19 +0530] "GET /spring3/resources/core/css/bootstrap.min.js;jsessionid=8EF55394468C674E591F4C566C885EE7 HTTP/1.1" 404 949
127.0.0.1 - - [16/Sep/2017:11:07:19 +0530] "GET /favicon.ico HTTP/1.1" 404 973
127.0.0.1 - - [16/Sep/2017:11:08:13 +0530] "GET /spring3/ HTTP/1.1" 200 1631
127.0.0.1 - - [16/Sep/2017:11:08:13 +0530] "GET /spring3/resources/core/css/hello.css;jsessionid=C0EF87FE409E1872EF626452A9B1AC61 HTTP/1.1" 200 -
127.0.0.1 - - [16/Sep/2017:11:08:13 +0530] "GET /spring3/resources/core/css/bootstrap.min.js;jsessionid=C0EF87FE409E1872EF626452A9B1AC61 HTTP/1.1" 404 949
127.0.0.1 - - [16/Sep/2017:11:08:13 +0530] "GET /spring3/resources/core/css/hello.js;jsessionid=C0EF87FE409E1872EF626452A9B1AC61 HTTP/1.1" 404 949
127.0.0.1 - - [16/Sep/2017:11:08:13 +0530] "GET /spring3/resources/core/css/bootstrap.min.css;jsessionid=C0EF87FE409E1872EF626452A9B1AC61 HTTP/1.1" 200 117305
127.0.0.1 - - [16/Sep/2017:11:08:13 +0530] "GET /spring3/resources/core/css/bootstrap.min.js;jsessionid=C0EF87FE409E1872EF626452A9B1AC61 HTTP/1.1" 404 949
127.0.0.1 - - [16/Sep/2017:11:09:06 +0530] "GET /spring3/ HTTP/1.1" 200 1290
127.0.0.1 - - [16/Sep/2017:11:11:23 +0530] "GET /spring3/ HTTP/1.1" 200 1209
127.0.0.1 - - [16/Sep/2017:11:25:48 +0530] "GET /spring3/ HTTP/1.1" 200 2510
127.0.0.1 - - [16/Sep/2017:11:26:20 +0530] "GET /spring3/ HTTP/1.1" 200 2531
127.0.0.1 - - [16/Sep/2017:11:26:32 +0530] "GET /spring3/ HTTP/1.1" 200 2539
127.0.0.1 - - [16/Sep/2017:11:29:33 +0530] "GET /spring3/ HTTP/1.1" 200 2555
127.0.0.1 - - [16/Sep/2017:11:36:08 +0530] "GET /spring3/ HTTP/1.1" 200 2545
127.0.0.1 - - [16/Sep/2017:11:36:31 +0530] "POST /spring3/save HTTP/1.1" 400 968
127.0.0.1 - - [16/Sep/2017:11:37:53 +0530] "GET / HTTP/1.1" 404 951
127.0.0.1 - - [16/Sep/2017:11:37:53 +0530] "GET /spring3/ HTTP/1.1" 200 2545
127.0.0.1 - - [16/Sep/2017:11:37:57 +0530] "POST /spring3/save HTTP/1.1" 400 968
127.0.0.1 - - [16/Sep/2017:11:47:19 +0530] "GET / HTTP/1.1" 404 951
127.0.0.1 - - [16/Sep/2017:11:47:20 +0530] "GET /spring3/ HTTP/1.1" 200 2545
127.0.0.1 - - [16/Sep/2017:11:47:22 +0530] "POST /spring3/save HTTP/1.1" 400 968
127.0.0.1 - - [16/Sep/2017:11:47:46 +0530] "GET /spring3/ HTTP/1.1" 200 2545
127.0.0.1 - - [16/Sep/2017:11:47:49 +0530] "POST /spring3/save HTTP/1.1" 400 968
127.0.0.1 - - [16/Sep/2017:11:48:36 +0530] "GET / HTTP/1.1" 404 951
127.0.0.1 - - [16/Sep/2017:11:48:36 +0530] "GET /spring3/ HTTP/1.1" 200 2545
127.0.0.1 - - [16/Sep/2017:11:48:40 +0530] "POST /spring3/save HTTP/1.1" 400 968
127.0.0.1 - - [16/Sep/2017:11:48:50 +0530] "GET /spring3/save HTTP/1.1" 405 1045
127.0.0.1 - - [16/Sep/2017:11:48:52 +0530] "GET /spring3/save HTTP/1.1" 405 1045
127.0.0.1 - - [16/Sep/2017:11:49:00 +0530] "GET /spring3/save HTTP/1.1" 405 1045
127.0.0.1 - - [16/Sep/2017:11:49:04 +0530] "POST /spring3/save HTTP/1.1" 400 968
127.0.0.1 - - [16/Sep/2017:11:50:03 +0530] "GET / HTTP/1.1" 404 951
127.0.0.1 - - [16/Sep/2017:11:50:10 +0530] "GET /spring3/ HTTP/1.1" 200 2545
127.0.0.1 - - [16/Sep/2017:11:50:41 +0530] "GET / HTTP/1.1" 404 951
127.0.0.1 - - [16/Sep/2017:11:50:50 +0530] "GET /spring3/ HTTP/1.1" 200 2545
127.0.0.1 - - [16/Sep/2017:11:50:52 +0530] "POST /spring3/save HTTP/1.1" 400 968
127.0.0.1 - - [16/Sep/2017:11:51:07 +0530] "GET / HTTP/1.1" 404 951
127.0.0.1 - - [16/Sep/2017:11:51:16 +0530] "GET /spring3/ HTTP/1.1" 200 2545
127.0.0.1 - - [16/Sep/2017:11:53:57 +0530] "GET / HTTP/1.1" 404 951
127.0.0.1 - - [16/Sep/2017:11:54:50 +0530] "GET / HTTP/1.1" 404 951
127.0.0.1 - - [16/Sep/2017:11:54:51 +0530] "GET /spring3/ HTTP/1.1" 200 2544
127.0.0.1 - - [16/Sep/2017:11:54:52 +0530] "POST /spring3/save HTTP/1.1" 400 968
127.0.0.1 - - [16/Sep/2017:11:55:22 +0530] "GET /spring3/ HTTP/1.1" 200 2544
127.0.0.1 - - [16/Sep/2017:12:00:41 +0530] "GET / HTTP/1.1" 404 951
127.0.0.1 - - [16/Sep/2017:12:00:42 +0530] "GET /spring3/ HTTP/1.1" 500 4182
127.0.0.1 - - [16/Sep/2017:12:03:44 +0530] "GET / HTTP/1.1" 404 951
127.0.0.1 - - [16/Sep/2017:12:03:44 +0530] "GET /spring3/ HTTP/1.1" 500 4182
127.0.0.1 - - [16/Sep/2017:12:04:21 +0530] "GET / HTTP/1.1" 404 951
127.0.0.1 - - [16/Sep/2017:12:04:22 +0530] "GET /spring3/ HTTP/1.1" 500 4182
127.0.0.1 - - [16/Sep/2017:12:04:59 +0530] "GET / HTTP/1.1" 404 951
127.0.0.1 - - [16/Sep/2017:12:05:00 +0530] "GET /spring3/ HTTP/1.1" 500 6242
127.0.0.1 - - [16/Sep/2017:12:11:38 +0530] "GET / HTTP/1.1" 404 951
127.0.0.1 - - [16/Sep/2017:12:11:38 +0530] "GET /spring3/ HTTP/1.1" 500 6028
127.0.0.1 - - [16/Sep/2017:12:14:03 +0530] "GET / HTTP/1.1" 404 951
127.0.0.1 - - [16/Sep/2017:12:14:04 +0530] "GET /spring3/ HTTP/1.1" 500 6028
127.0.0.1 - - [16/Sep/2017:12:14:34 +0530] "GET / HTTP/1.1" 404 951
127.0.0.1 - - [16/Sep/2017:12:14:36 +0530] "GET /spring3/ HTTP/1.1" 500 6243
127.0.0.1 - - [16/Sep/2017:12:16:08 +0530] "GET / HTTP/1.1" 404 951
127.0.0.1 - - [16/Sep/2017:12:16:09 +0530] "GET /spring3/ HTTP/1.1" 500 6280
127.0.0.1 - - [16/Sep/2017:12:17:13 +0530] "GET / HTTP/1.1" 404 951
127.0.0.1 - - [16/Sep/2017:12:17:14 +0530] "GET /spring3/ HTTP/1.1" 500 6280
127.0.0.1 - - [16/Sep/2017:12:17:48 +0530] "GET / HTTP/1.1" 404 951
127.0.0.1 - - [16/Sep/2017:12:17:49 +0530] "GET /spring3/ HTTP/1.1" 200 2691
127.0.0.1 - - [16/Sep/2017:12:17:54 +0530] "POST /spring3/save HTTP/1.1" 200 2691
127.0.0.1 - - [16/Sep/2017:12:18:58 +0530] "GET / HTTP/1.1" 404 951
127.0.0.1 - - [16/Sep/2017:12:18:58 +0530] "GET /spring3/ HTTP/1.1" 200 2691
127.0.0.1 - - [16/Sep/2017:12:19:07 +0530] "POST /spring3/save HTTP/1.1" 200 2691
127.0.0.1 - - [16/Sep/2017:12:24:37 +0530] "GET / HTTP/1.1" 404 951
127.0.0.1 - - [16/Sep/2017:12:24:37 +0530] "GET /spring3/ HTTP/1.1" 200 2691
127.0.0.1 - - [16/Sep/2017:12:25:05 +0530] "POST /spring3/save HTTP/1.1" 400 1080
127.0.0.1 - - [16/Sep/2017:12:25:27 +0530] "POST /spring3/save HTTP/1.1" 400 1080
127.0.0.1 - - [16/Sep/2017:12:26:21 +0530] "GET / HTTP/1.1" 404 951
127.0.0.1 - - [16/Sep/2017:12:26:21 +0530] "GET /spring3/ HTTP/1.1" 200 2691
127.0.0.1 - - [16/Sep/2017:12:26:37 +0530] "POST /spring3/save HTTP/1.1" 400 1078
127.0.0.1 - - [16/Sep/2017:12:28:50 +0530] "GET / HTTP/1.1" 404 951
127.0.0.1 - - [16/Sep/2017:12:28:51 +0530] "GET /spring3/ HTTP/1.1" 200 2691
127.0.0.1 - - [16/Sep/2017:12:28:59 +0530] "POST /spring3/save HTTP/1.1" 200 2691
127.0.0.1 - - [16/Sep/2017:12:29:35 +0530] "GET /spring3/ HTTP/1.1" 200 2691
127.0.0.1 - - [16/Sep/2017:12:29:42 +0530] "POST /spring3/save HTTP/1.1" 200 2691
127.0.0.1 - - [16/Sep/2017:12:31:03 +0530] "GET / HTTP/1.1" 404 951
127.0.0.1 - - [16/Sep/2017:12:31:04 +0530] "GET /spring3/ HTTP/1.1" 200 2691
127.0.0.1 - - [16/Sep/2017:12:31:16 +0530] "POST /spring3/save HTTP/1.1" 200 2691
127.0.0.1 - - [16/Sep/2017:12:32:14 +0530] "GET / HTTP/1.1" 404 951
127.0.0.1 - - [16/Sep/2017:12:32:14 +0530] "GET /spring3/ HTTP/1.1" 200 2691
127.0.0.1 - - [16/Sep/2017:12:32:29 +0530] "POST /spring3/save HTTP/1.1" 200 2691
127.0.0.1 - - [16/Sep/2017:12:33:06 +0530] "GET / HTTP/1.1" 404 951
127.0.0.1 - - [16/Sep/2017:12:33:06 +0530] "GET /spring3/ HTTP/1.1" 200 2691
127.0.0.1 - - [16/Sep/2017:12:35:10 +0530] "GET / HTTP/1.1" 404 951
127.0.0.1 - - [16/Sep/2017:12:35:11 +0530] "GET /spring3/ HTTP/1.1" 200 2723
127.0.0.1 - - [16/Sep/2017:12:35:22 +0530] "POST /spring3/save HTTP/1.1" 200 2723
127.0.0.1 - - [16/Sep/2017:12:36:55 +0530] "GET / HTTP/1.1" 404 951
127.0.0.1 - - [16/Sep/2017:12:36:55 +0530] "GET /spring3/ HTTP/1.1" 200 2723
127.0.0.1 - - [16/Sep/2017:12:37:03 +0530] "POST /spring3/save HTTP/1.1" 400 1070
127.0.0.1 - - [16/Sep/2017:12:38:40 +0530] "POST /spring3/save HTTP/1.1" 400 1078
127.0.0.1 - - [16/Sep/2017:12:38:45 +0530] "GET /spring3/ HTTP/1.1" 200 2723
127.0.0.1 - - [16/Sep/2017:12:38:52 +0530] "POST /spring3/save HTTP/1.1" 400 1078
127.0.0.1 - - [16/Sep/2017:12:40:38 +0530] "GET / HTTP/1.1" 404 951
127.0.0.1 - - [16/Sep/2017:12:40:39 +0530] "GET /spring3/ HTTP/1.1" 200 2732
127.0.0.1 - - [16/Sep/2017:12:46:28 +0530] "GET / HTTP/1.1" 404 951
127.0.0.1 - - [16/Sep/2017:12:46:28 +0530] "GET /spring3/ HTTP/1.1" 200 2732
127.0.0.1 - - [16/Sep/2017:12:52:14 +0530] "GET / HTTP/1.1" 404 951
127.0.0.1 - - [16/Sep/2017:12:52:15 +0530] "GET /spring3/ HTTP/1.1" 200 2465
127.0.0.1 - - [16/Sep/2017:12:57:50 +0530] "GET / HTTP/1.1" 404 951
127.0.0.1 - - [16/Sep/2017:12:57:51 +0530] "GET /spring3/ HTTP/1.1" 200 2963
127.0.0.1 - - [16/Sep/2017:12:58:08 +0530] "GET /spring3/ HTTP/1.1" 200 2963
127.0.0.1 - - [16/Sep/2017:12:58:10 +0530] "GET /spring3/ HTTP/1.1" 200 2963
127.0.0.1 - - [16/Sep/2017:12:58:12 +0530] "POST /spring3/save HTTP/1.1" 200 2963
127.0.0.1 - - [16/Sep/2017:12:58:19 +0530] "POST /spring3/save HTTP/1.1" 200 2963
127.0.0.1 - - [16/Sep/2017:13:32:10 +0530] "GET / HTTP/1.1" 404 951
127.0.0.1 - - [16/Sep/2017:13:32:10 +0530] "GET /spring3/ HTTP/1.1" 200 2963
127.0.0.1 - - [16/Sep/2017:13:32:18 +0530] "GET /spring3/ HTTP/1.1" 200 2963
127.0.0.1 - - [16/Sep/2017:13:33:52 +0530] "POST /spring3/save HTTP/1.1" 200 2963
127.0.0.1 - - [16/Sep/2017:13:34:42 +0530] "GET / HTTP/1.1" 404 951
127.0.0.1 - - [16/Sep/2017:13:34:42 +0530] "GET /spring3/ HTTP/1.1" 200 2963
127.0.0.1 - - [16/Sep/2017:13:39:44 +0530] "POST /spring3/save HTTP/1.1" 500 2053
127.0.0.1 - - [16/Sep/2017:13:54:25 +0530] "GET / HTTP/1.1" 404 951
127.0.0.1 - - [16/Sep/2017:13:54:25 +0530] "GET /spring3/ HTTP/1.1" 200 2963
127.0.0.1 - - [16/Sep/2017:13:55:05 +0530] "GET / HTTP/1.1" 404 951
127.0.0.1 - - [16/Sep/2017:13:55:06 +0530] "GET /spring3/ HTTP/1.1" 200 2963
127.0.0.1 - - [16/Sep/2017:13:58:31 +0530] "POST /spring3/save HTTP/1.1" 500 2053
127.0.0.1 - - [16/Sep/2017:14:01:37 +0530] "POST /spring3/save HTTP/1.1" 500 2053
127.0.0.1 - - [16/Sep/2017:14:03:21 +0530] "GET / HTTP/1.1" 404 951
127.0.0.1 - - [16/Sep/2017:14:09:43 +0530] "GET / HTTP/1.1" 404 951
127.0.0.1 - - [16/Sep/2017:14:09:44 +0530] "GET /spring3/ HTTP/1.1" 200 2963
127.0.0.1 - - [16/Sep/2017:14:09:52 +0530] "POST /spring3/save HTTP/1.1" 200 796
127.0.0.1 - - [16/Sep/2017:14:18:53 +0530] "POST /spring3/save HTTP/1.1" 200 754
127.0.0.1 - - [16/Sep/2017:14:20:24 +0530] "GET / HTTP/1.1" 404 951
127.0.0.1 - - [16/Sep/2017:14:20:25 +0530] "GET /spring3/ HTTP/1.1" 200 2963
127.0.0.1 - - [16/Sep/2017:14:20:28 +0530] "POST /spring3/save HTTP/1.1" 200 754
127.0.0.1 - - [16/Sep/2017:14:21:08 +0530] "GET / HTTP/1.1" 404 951
127.0.0.1 - - [16/Sep/2017:14:21:08 +0530] "GET /spring3/ HTTP/1.1" 200 2963
127.0.0.1 - - [16/Sep/2017:14:22:44 +0530] "POST /spring3/save HTTP/1.1" 500 2053
127.0.0.1 - - [16/Sep/2017:14:24:37 +0530] "POST /spring3/save HTTP/1.1" 200 755
127.0.0.1 - - [16/Sep/2017:14:27:16 +0530] "GET / HTTP/1.1" 404 951
127.0.0.1 - - [16/Sep/2017:14:27:16 +0530] "GET /spring3/ HTTP/1.1" 200 2963
127.0.0.1 - - [16/Sep/2017:14:29:04 +0530] "POST /spring3/save HTTP/1.1" 200 754
127.0.0.1 - - [16/Sep/2017:15:35:46 +0530] "GET / HTTP/1.1" 404 951
127.0.0.1 - - [16/Sep/2017:15:35:47 +0530] "GET /spring3/ HTTP/1.1" 200 2963
127.0.0.1 - - [16/Sep/2017:15:36:01 +0530] "POST /spring3/save HTTP/1.1" 200 754
127.0.0.1 - - [16/Sep/2017:15:36:06 +0530] "GET /spring3/save HTTP/1.1" 405 1045
